mass_A
t	x	y	v	t_{1}	x_{1}	y_{1}	v_{1}	t_{12}	x_{12}	y_{12}	v_{12}	t_{123}	x_{123}	y_{123}	v_{123}	t_{1234}	x_{1234}	y_{1234}	v_{1234}	t_{12345}	x_{12345}	y_{12345}	v_{12345}	t_{123456}	x_{123456}	y_{123456}	v_{123456}	t_{1234567}	x_{1234567}	y_{1234567}	v_{1234567}	t_{12345678}	x_{12345678}	y_{12345678}	v_{12345678}	t_{123456789}	x_{123456789}	y_{123456789}	v_{123456789}	t_{12345678910}	x_{12345678910}	y_{12345678910}	v_{12345678910}
0.0	1.6256257958113807E-4	0.3046422741350818		0.0	-6.502503183246355E-4	0.3049673992942449		0.0	-0.0013005006366492433	0.3057802121921507		0.0	-6.502503183246078E-4	0.305617649612569		0.0	0.0	0.3043853043122009		0.0	7.626184123931401E-4	0.30867910264066467		0.0	-5.2698781584673E-4	0.3150924868749524		0.0	-0.0011799899991219165	0.3062913566297851		0.0	0.0016304191657165457	0.31597523431586516		0.0	3.222352282113705E-4	0.30161217360586967		0.0	-6.502357470521691E-4	0.3072363904821518	
0.03336666666666679	-0.005226633240472844	0.30576543377582444	0.0014009935662952825	0.03336666666666679	-6.50134574230965E-4	0.30477480112235245	0.10362806384132073	0.03336666666666679	3.3046480593687533E-4	0.3053773655077141	0.10781087120070583	0.03336666666666679	7.633870169435064E-4	0.3051902443066755	0.10446202142826266	0.03336666666666656	0.0010209145628333194	0.3066879510269126	0.020561317256879555	0.03336666666666656	6.473222111576249E-4	0.30737758899699175	0.04836424213825911	0.033366666666666676	0.003744005249058352	0.31575148921815455	0.1122415986139889	0.033366666666666614	-4.816048174583476E-4	0.30511106840026303	0.07062599836585354	0.03336666666666679	0.00430987901868396	0.3148578342756154	0.12266924690625666	0.033366666666666676	-0.003114940539376887	0.3057743786369337	0.06200535867581937	0.03336666666666656	-0.0037207934414652255	0.3095462148515823	0.01899006008884613
0.06673333333333335	1.781107871926535E-4	0.30455008308995046	0.192607714495632	0.06673333333333335	0.0057057478924884	0.3022425723493307	0.3016233730044279	0.06673333333333335	0.0052983925937838405	0.3029137557889008	0.22210474226024815	0.06673333333333335	0.005757346387825019	0.30287193945340063	0.2220646617661945	0.06673333333333335	0.0013705586208179465	0.3043197548162846	0.059582953732568826	0.06673333333333323	0.0032422206679948162	0.3066130981191071	0.21766900086641516	0.06673333333333335	0.005903468993432498	0.311251502576383	0.149489410533523	0.06673333333333335	0.0027601057558938047	0.303705039711171	0.18946465696364653	0.06673333333333323	0.009385071927375005	0.31335263103291777	0.221554461135217	0.06673333333333335	0.004184235093510069	0.3030976185632074	0.1379797171011962	0.06673333333333335	-0.0016073827667129614	0.3080669582763865	0.05127171544253617
0.10010000000000013	0.006624621178934226	0.3007898434931262	0.23615701982201776	0.10010000000000013	0.017995536200868856	0.2971926672273201	0.3121154818379464	0.10010000000000013	0.013185958378152757	0.29800025646046147	0.35331648475552774	0.10010000000000013	0.013762487240966292	0.29807479874293763	0.34785606048042517	0.10010000000000013	0.004176256523156119	0.3042685011051349	0.16255858754835287	0.10010000000000002	0.013773175474393773	0.3011558366425314	0.3426961858869462	0.10010000000000002	0.011050804846012896	0.30895959754983093	0.23334317763863835	0.10009999999999997	0.01093669182091811	0.29968121316575147	0.28547101244307604	0.10010000000000002	0.017493104876836113	0.3081644955678797	0.3226685415277626	0.10010000000000002	0.005039225549255039	0.30149722868286	0.14165361784593164	0.10009999999999991	-5.093711473708462E-4	0.3083656847412004	0.07969118865145554
0.1334666666666667	0.014562233408137476	0.298111117419685	0.31720058210699015	0.1334666666666667	0.024460333300318826	0.29318209726794264	0.36343206702645064	0.1334666666666667	0.02593857632413965	0.29151620014175506	0.43349458512639627	0.1334666666666667	0.02661541024302916	0.29268311523987534	0.4192610401616876	0.1334666666666667	0.011909867283099146	0.30174998153874233	0.32150301965628736	0.13346666666666646	0.0241223321571451	0.2972844357024411	0.36216042743133253	0.1334666666666667	0.02125583925337851	0.30864675926040475	0.3331472272871084	0.13346666666666665	0.020666651550031445	0.29720314876420084	0.341951417324945	0.1334666666666666	0.02888358071926958	0.3042165835936518	0.416126599748312	0.1334666666666667	0.012624615437686892	0.2988409143452817	0.2830101394933655	0.1334666666666667	0.003629704908111958	0.3071424797450354	0.21512644883285162
0.16683333333333347	0.02629337530674619	0.2929656453269728	0.4383319390461315	0.16683333333333347	0.03930760363661959	0.28561659688586427	0.531791113769195	0.16683333333333347	0.03905648331864062	0.28505513044409037	0.49370190291082006	0.16683333333333347	0.0383904186252958	0.28479805562560045	0.49206383295345113	0.16683333333333347	0.024213538346549268	0.29659888594752015	0.3981661768091354	0.16683333333333325	0.036157639412464554	0.29204340901038794	0.47110897395161855	0.16683333333333336	0.03290430052505139	0.3048745442126749	0.463162104471706	0.1668333333333333	0.03286238718510551	0.29335696567807057	0.45465196155838267	0.16683333333333336	0.043128371312132874	0.29748839688353335	0.5399246351148494	0.16683333333333325	0.02237331586746541	0.29399934630983604	0.39225645620964195	0.16683333333333325	0.01076109631060998	0.29947331078433126	0.2958827279334887
0.20020000000000027	0.041410333889817935	0.2864998703206837	0.49883389838082043	0.20020000000000004	0.05689251551105717	0.2787749654847417	0.6137606300373538	0.20020000000000004	0.05611217366470561	0.2782867798787667	0.5955043608067122	0.20020000000000004	0.05550801729206356	0.277078957034971	0.602550410372882	0.20020000000000004	0.03693078781427503	0.29280742882125155	0.47286959612555995	0.20019999999999982	0.052811460686499445	0.2844265970966239	0.5686453134287562	0.20020000000000004	0.04944417760744885	0.2959682834501485	0.5588406009403506	0.2002	0.04754508039161012	0.2831286179693483	0.5608998984982262	0.20019999999999993	0.06197263564443786	0.28995666458475877	0.6110110401172414	0.20019999999999993	0.03557437532412963	0.2862503660705832	0.4792607943931576	0.20020000000000004	0.02044184275322941	0.29678745430795006	0.3553014900449946
0.23356666666666684	0.05782117921261126	0.28228177727547477	0.5590402864855525	0.23356666666666662	0.07753091271310422	0.2709006060916115	0.679361591517558	0.23356666666666662	0.07601947302169626	0.27046046437118887	0.687117037689739	0.23356666666666662	0.07550506710391258	0.26932670009049564	0.690630822511001	0.23356666666666684	0.05296190465925982	0.28358647092112976	0.6113022967384802	0.23356666666666662	0.07125914806680464	0.27762452461533316	0.6317657943249445	0.23356666666666662	0.06744109964901135	0.29080331681493776	0.6005385703928675	0.23356666666666667	0.06681873269097582	0.27760814376648646	0.6406719430162997	0.23356666666666673	0.08048286719644193	0.28114134117330547	0.6438817289968116	0.23356666666666673	0.05036692240327703	0.27853166401517304	0.5459251551008228	0.23356666666666662	0.032665437072770004	0.29039666898869554	0.45470722198070745
0.26693333333333363	0.07635908898543209	0.2734473400578922	0.6646235740908436	0.2669333333333334	0.09900678058293844	0.26198963454331836	0.7597979581089194	0.2669333333333334	0.09833176033442997	0.26039655684012475	0.777130107468376	0.2669333333333334	0.09884019843671027	0.2613807166212101	0.7781948154565799	0.2669333333333334	0.07201416992406673	0.2719909374822127	0.6891893918446159	0.2669333333333332	0.09191524315608032	0.2686675970897935	0.7330545129940471	0.2669333333333333	0.08569846748124124	0.27888883730791536	0.7171523170961633	0.26693333333333336	0.08722897515376249	0.26721925219947695	0.7162488305072672	0.2669333333333335	0.10146625193295225	0.2730293068223163	0.7558367126942116	0.2669333333333332	0.06906465802569564	0.2719099246417439	0.6384011100137945	0.2669333333333334	0.047947998254557006	0.28397427551226573	0.5437723236997635
0.3003000000000002	0.09866530890621478	0.2649928949639392	0.7509553650453862	0.30029999999999996	0.12441801088343624	0.2516008529583619	0.8609377060766359	0.30029999999999996	0.12370255497096116	0.25006847227926854	0.8646091782959265	0.30029999999999996	0.12409284913444507	0.2509933517102827	0.8498994363554091	0.30029999999999996	0.09412392912834519	0.2630695728763719	0.7301484800600097	0.30029999999999996	0.11670449586429116	0.25951912013918166	0.8248985879723485	0.30030000000000007	0.10983273226453388	0.2685921875666879	0.8159338948094778	0.3003	0.11044744054980976	0.25808499609589475	0.7998578145772006	0.30030000000000007	0.12777793952718855	0.2636108070755071	0.863074607933654	0.30029999999999996	0.09003583497719647	0.2629958407243296	0.7350538987020866	0.3003000000000002	0.06648169444880161	0.27723381245427803	0.66039524209067
0.33366666666666694	0.12307192601075004	0.2553007352355192	0.8338622230455873	0.3336666666666667	0.15305378558215343	0.2425012694885753	0.9125198764740313	0.3336666666666667	0.15262673978603286	0.24087365880460077	0.9176634393837322	0.3336666666666667	0.15255326360378668	0.24316858096262073	0.9217563762663654	0.3336666666666667	0.1177495970033677	0.25518558392009527	0.8091016472045915	0.3336666666666667	0.14390889483473557	0.2505853383925034	0.8957877763516808	0.3336666666666665	0.13680356752763145	0.2600986801600442	0.873884677631927	0.33366666666666667	0.13746877445253974	0.24918911868126792	0.8917350561003996	0.33366666666666683	0.15566225321138658	0.2535337979906088	0.9156010345301387	0.3336666666666665	0.11467000535699556	0.2538458843532527	0.8236363073034976	0.3336666666666667	0.08896849639697665	0.26786475170625934	0.7322195865009833
0.36703333333333354	0.15096006585980767	0.24597235709622878	0.9152713905551109	0.3670333333333333	0.1829672325101595	0.2348601921116935	0.9696317409532307	0.3670333333333333	0.18323434475645578	0.23571057184868704	0.9713247203302922	0.3670333333333333	0.1839221539619209	0.23670471592661557	0.974664376528969	0.3670333333333333	0.14517178276167883	0.24547769786072648	0.910488668424785	0.3670333333333333	0.17366973442531586	0.24139513073206353	0.9621445436640637	0.3670333333333333	0.1653206022324611	0.25064792735421326	0.9163369021172668	0.3670333333333334	0.1672080955655751	0.24021088100903276	0.9623761778558447	0.36703333333333343	0.18656387529793092	0.24695069659603275	0.9628159456470166	0.3670333333333333	0.14144359649323546	0.24354634359304217	0.8818349957682301	0.3670333333333333	0.111839106482617	0.25905849168917827	0.8109438594206063
0.4004000000000001	0.18128478875611467	0.23680964584993935	0.9655160613961803	0.4004000000000001	0.21616228498445	0.22820854905805	1.026413514237011	0.4004000000000001	0.21636122291350596	0.22906205945336022	1.017587402479111	0.4004000000000001	0.21624149823192906	0.2299644551128207	1.0121281267417577	0.4004000000000001	0.17608399199803623	0.23818943341651733	0.968355196198852	0.4004000000000001	0.20588315576806132	0.23380009834612547	1.0030944708877325	0.40039999999999987	0.19637496109914399	0.24629295754949998	0.9789763062329725	0.40040000000000003	0.19919630848298764	0.23146201867970484	0.9990088044341824	0.4004000000000002	0.21827535544124357	0.23911477153917304	1.0259312975872985	0.40039999999999987	0.17030597524609142	0.23467035068529718	0.9461552003561015	0.40039999999999987	0.13961069534046497	0.2487855495291328	0.9016391043610256
0.43376666666666686	0.21349154787340105	0.2304382033366068	1.011020195869313	0.43376666666666663	0.25043358129374915	0.2230283225224169	1.0518305711981442	0.43376666666666663	0.2503086735730644	0.22510892239274505	1.0361245267936638	0.43376666666666663	0.25045004985789854	0.22504053214183628	1.0499378626948705	0.43376666666666663	0.2085393229583993	0.2328087527309235	1.0101943715965584	0.43376666666666663	0.23940131270538173	0.2287341083858212	1.0330245844947092	0.43376666666666663	0.2298424425918283	0.24040160942031508	1.0262951221975818	0.4337666666666667	0.23306455227662215	0.229845505705086	1.034143654147449	0.43376666666666674	0.253773109055381	0.2339041300916278	1.0532758126727622	0.43376666666666663	0.20234154087727008	0.22686967180922524	0.9945639068197368	0.43376666666666663	0.16958056470849955	0.2421387209981264	0.9590380140594452
0.46713333333333346	0.24774380353079792	0.2251807475156613	1.0422227066014578	0.46713333333333346	0.28594171847120115	0.22060789090938404	1.0611073398699327	0.46713333333333346	0.28529013225081995	0.2236119036552392	1.0619911878984896	0.46713333333333346	0.28600707218560645	0.2234846017617802	1.060702608617934	0.46713333333333346	0.24265772317498838	0.2275810938040339	1.0319328512361312	0.46713333333333346	0.27438137984333794	0.22603303653512696	1.0619179056636534	0.46713333333333323	0.2642047034788126	0.23681956664111858	1.0417925850385297	0.4671333333333334	0.26797526160138185	0.22579708371004636	1.0479079004978076	0.46713333333333334	0.28825059900820316	0.23248503497022266	1.0644884928130518	0.46713333333333346	0.23539619803270617	0.22169673290956982	1.0264079477473167	0.46713333333333323	0.20166523212582257	0.23312638899116356	1.0127582084949203
0.5005000000000003	0.2826129965120824	0.22272028369911234	1.0651816440353674	0.5005	0.3211993907936044	0.2204924846728178	1.0524866934367842	0.5005	0.321159008978679	0.22343055616220886	1.075413057541524	0.5005	0.32121649860831686	0.2234544557824375	1.0575294229141967	0.5005	0.27683650187126785	0.22398890151348905	1.0534661027861032	0.5005	0.3101586061782305	0.22482268641942738	1.064054984961253	0.5005	0.2991895273067131	0.23546897275711132	1.05920795731062	0.5005	0.302693648297335	0.22336105931436945	1.0599998148903533	0.5005000000000002	0.3247940158690359	0.2323984594367723	1.0707252581844342	0.5005	0.27040410171604945	0.21917953007445035	1.0449165321481289	0.5005	0.2353880720827435	0.22674171307836588	1.0431930965020522
0.5338666666666668	0.31871787567885423	0.22124485180567988	1.0462472699333007	0.5338666666666668	0.35617745518717614	0.22077908101049282	1.0514230309759298	0.5338666666666668	0.3570559466308737	0.2235023233358293	1.0488581585136552	0.5338666666666668	0.35657938049147825	0.22363259942084612	1.0543063813606077	0.5338666666666668	0.3128516763736502	0.22369749215548995	1.0709633491957797	0.5338666666666666	0.3453812497008187	0.2249627773648164	1.049968371968825	0.5338666666666668	0.33482301752677734	0.23376193576776427	1.0384206540391594	0.5338666666666666	0.33861487449718985	0.22208040920084082	1.048269236925029	0.5338666666666667	0.35969405944071964	0.23131348055188083	1.0510382293668732	0.5338666666666668	0.3050104050103947	0.2176666547903705	1.0746612344771318	0.5338666666666668	0.2706778332475128	0.2239823252316111	1.0771522886654177
0.5672333333333336	0.3524321624087652	0.22248338042297855	1.0361657541295173	0.5672333333333336	0.39125839212471747	0.22434715061697919	1.041228509915541	0.5672333333333336	0.3911026484502844	0.22607998845974953	1.0304772941553555	0.5672333333333336	0.3915580374101673	0.224947347091214	1.0487597540194888	0.5672333333333334	0.34829526720900605	0.22278214283348519	1.048337716821672	0.5672333333333334	0.38011520979749297	0.2287701829513421	1.0336871514408075	0.5672333333333334	0.3684732447551574	0.23409844215430586	1.0379510362379294	0.5672333333333334	0.3726481484401577	0.2233549362410815	1.0203409106829886	0.5672333333333335	0.3949329754398452	0.23261195743759544	1.0424747338843274	0.5672333333333334	0.34210503683230986	0.2177230570139851	1.047019703885361	0.5672333333333331	0.30715448529594613	0.22266758734784786	1.0895981786157065
0.6006000000000001	0.3878480426238794	0.22276117293076636	1.0520174322067664	0.6006000000000001	0.4256227746605251	0.22311661852532683	1.0110959291406387	0.6006000000000001	0.4257587910284183	0.22647635628062346	1.0328574834082724	0.6006000000000001	0.42652586440680024	0.22602055797729936	1.021784964399344	0.6006000000000001	0.38281019592840027	0.22397508773731678	1.0361869256267064	0.6005999999999999	0.41428445732155944	0.22824607463770774	1.0274185408370555	0.6006000000000001	0.4040470158586238	0.23617180256105363	1.0144962802336484	0.6005999999999999	0.4066906621710319	0.22350777832515478	1.0396479778914531	0.6006	0.4292173945833275	0.2338007687479171	1.0233843340470312	0.6006000000000001	0.3748707111640403	0.2188956065059967	1.0352107796293237	0.6005999999999997	0.34337912965048234	0.2227048898716808	1.0688744927866827
0.6339666666666669	0.42263637417635547	0.22272570282970683	1.0384000454480662	0.6339666666666667	0.4587321895512164	0.22437108444646092	1.0236980271728338	0.6339666666666667	0.4600265532408334	0.22662031915831782	1.0177023557865423	0.6339666666666667	0.45971085566033393	0.22710980820964521	0.9927478740129189	0.6339666666666669	0.4173558104683306	0.226262942407226	1.0376664700781293	0.6339666666666667	0.44867816528473253	0.2286482229753133	1.003965624430408	0.6339666666666667	0.4361269065715604	0.23662219320117228	0.9911675670283193	0.6339666666666667	0.4420166698056073	0.22457073856617582	1.0214671202301078	0.6339666666666668	0.46318045768262006	0.2351280709937733	1.018865399076041	0.6339666666666667	0.4111719619815219	0.21921632931346502	1.0299634070959325	0.6339666666666665	0.37838021808369393	0.22651476910204382	1.0567483069382138
0.6673333333333334	0.4570973627681977	0.22530143133289615	1.0165096609913074	0.6673333333333332	0.49388165744446066	0.2258796453212597	0.9725776038366907	0.6673333333333332	0.4936734225798116	0.2265491311286083	0.95765418030456	0.6673333333333332	0.49275904342720706	0.22748536419070153	0.9759352040282333	0.6673333333333334	0.45196009410954774	0.22763986854214058	1.0208039463647507	0.6673333333333332	0.481226301180727	0.2309879503949438	0.997894518411324	0.6673333333333334	0.4701666063666736	0.23796549350383256	1.0067589178695993	0.6673333333333332	0.47476286500375386	0.2270807208406982	0.98104559208602	0.6673333333333333	0.497098505094528	0.23768735592340173	0.9975763258207517	0.6673333333333332	0.44355010652153387	0.2216068809256766	0.9830931727552304	0.6673333333333332	0.41388716858588104	0.2240218478751803	1.047282127154674
0.7007000000000003	0.49035625482761935	0.22667735789366483	0.9906096961350487	0.7007000000000001	0.5234444038353256	0.22934838997972573	0.9211731095302825	0.7007000000000001	0.5238245683376747	0.23035878877846172	0.944841199457688	0.7007000000000001	0.5247622755206602	0.2302549972278637	0.9518214829985052	0.7007000000000001	0.48542414597026406	0.22895754878748564	0.9864022626508306	0.7007000000000001	0.515164154327985	0.2324188912451196	0.9673952202757897	0.7007000000000001	0.5031136680329485	0.24177141614872	0.9703314455105838	0.7007000000000001	0.5073669329051872	0.22850266910297456	0.9660874420999132	0.7007000000000002	0.529639470210112	0.2389980466865671	0.9578015900645397	0.7007000000000001	0.47667391559799993	0.22289344379712805	1.00090803529052	0.7007000000000001	0.4482583813344141	0.22530542028924394	1.0251825896823084
0.7340666666666671	0.5230777266690827	0.22938623891086407	0.9777823756096544	0.7340666666666666	0.5550993788185873	0.23147557589544276	0.932019148435774	0.7340666666666666	0.5560897384611491	0.2354827193978979	0.9412964839840063	0.7340666666666666	0.5557796987420229	0.23542018073639714	0.9160263734588752	0.7340666666666666	0.5177285512307329	0.23038952417864977	0.9553432580350708	0.7340666666666666	0.5455661325695798	0.2362849209683655	0.9285362384814005	0.7340666666666666	0.5346536617386454	0.2438331343490161	0.9415810609783458	0.7340666666666666	0.5390164433107757	0.23236171646102743	0.9427943194126815	0.7340666666666668	0.560482947987024	0.24592341779454463	0.9410097150761274	0.7340666666666666	0.5102862578888991	0.2243844925035704	0.9783136724256751	0.7340666666666664	0.4822861621821234	0.2254475932961305	1.0068853555830344
0.7674333333333336	0.5552755979022773	0.23324468380953456	0.933189283286022	0.7674333333333334	0.5854013606025573	0.2348046281746733	0.9023675581041755	0.7674333333333334	0.5860630911621708	0.23885570251406119	0.8904173648566133	0.7674333333333334	0.5854034065011902	0.2379665591465464	0.9000808579979679	0.7674333333333334	0.5489354420350798	0.2345065030724719	0.9144667930145611	0.7674333333333334	0.5766581996710527	0.24003854553813575	0.9121020183118882	0.7674333333333334	0.5657985645606797	0.24610975884355413	0.9187198619621701	0.7674333333333334	0.5698020326984002	0.2362652174940857	0.9270475180609681	0.7674333333333335	0.5917591663556728	0.2481942830812115	0.9008776130388296	0.7674333333333334	0.54174943435004	0.22813328575630476	0.9418218289903233	0.7674333333333332	0.5153499281790329	0.22899308518931982	0.9952026659620311
0.8008000000000002	0.5850290205443104	0.23572594127879987	0.9071584872311668	0.8008000000000002	0.6150286535218081	0.2373653093939484	0.8614480966987523	0.8008000000000002	0.6152845611242698	0.24065679188458822	0.8567893435499372	0.8008000000000002	0.6156440014763911	0.24033109160939314	0.882264871108009	0.8008	0.5783097697005111	0.23773918592996846	0.893075086238959	0.8008	0.6062005215979362	0.2416081317926141	0.882839120295329	0.8008	0.5955649244073197	0.25080743294497043	0.8671852755226104	0.8008000000000002	0.6005434245077492	0.2388196748376621	0.8780770673924108	0.8008000000000003	0.6204188292943085	0.2506065914023391	0.8749416454359452	0.8008	0.5726697914972183	0.23203508916224747	0.9135008872824508	0.8008	0.548238217671968	0.23326029753942457	0.9744988644246748
0.8341666666666667	0.6156083692230803	0.23822173135160252	0.8861410721403351	0.8341666666666665	0.642670044782269	0.23981340217340297	0.846649643155507	0.8341666666666665	0.6430798468307202	0.2431255155204075	0.8410559514831191	0.8341666666666665	0.6441404427415389	0.24201624658062904	0.8365207981218199	0.8341666666666667	0.6083165882610474	0.23958454069145685	0.8881111089613685	0.8341666666666667	0.6354363439319393	0.2440489192718046	0.86191679587955	0.8341666666666667	0.6233250625085481	0.2524072124082256	0.8402219898643453	0.8341666666666667	0.6282688350936981	0.24016938902260365	0.8598316493320217	0.8341666666666668	0.6500888572908895	0.25079795926209525	0.8593300630446313	0.8341666666666667	0.6023636355393023	0.2346261404559965	0.8899810426870624	0.8341666666666667	0.5799039203315769	0.2368598237058389	0.9212754120453094
0.8675333333333335	0.6439749996070704	0.24045216892852905	0.8682041675616794	0.867533333333333	0.6714665704556356	0.24000796045831652	0.834432149497213	0.867533333333333	0.6712981069697233	0.24421530251977708	0.8519073513178053	0.867533333333333	0.6713957915692002	0.2431660381105053	0.8284980444044544	0.8675333333333335	0.6374827135092015	0.24107000198860662	0.8437697872552109	0.8675333333333335	0.663605225602873	0.24522574157418453	0.8305776772408946	0.8675333333333333	0.6515446517772842	0.25400216612151716	0.8709710714004005	0.8675333333333335	0.6577869314154496	0.24276684357722866	0.8646744957710362	0.8675333333333334	0.6777469885177647	0.2520353095943004	0.8535698195039038	0.8675333333333333	0.6319353311411959	0.23589959334525823	0.8535503159346282	0.867533333333333	0.6093781886462944	0.2397153107300395	0.9065821210463756
0.9009000000000001	0.6734174890557199	0.24208642150309267	0.8548935784450568	0.9008999999999998	0.6983534121164469	0.24015883548810746	0.8065834142285939	0.9008999999999998	0.6999209815561371	0.24416382386571145	0.8186318549636855	0.9008999999999998	0.6994142836366635	0.24328655602286553	0.8289633954262103	0.9008999999999998	0.664523918052996	0.24294289889697118	0.8261308924050461	0.9009000000000001	0.6908485466711027	0.245338946928076	0.8177202507656156	0.9009000000000001	0.6814476080731545	0.2522342786802054	0.8599185682353567	0.9009000000000001	0.6858499783401798	0.2439114872530923	0.8266987370283546	0.9008999999999999	0.7069977608415007	0.2532466187348317	0.8502613794150401	0.9009000000000001	0.6592655641556713	0.23720324788262337	0.8216904912222454	0.9008999999999998	0.6402166435322718	0.24160685360891854	0.8749536843679309
0.9342666666666669	0.7009832269772893	0.24263228115222324	0.8339913475255774	0.9342666666666667	0.7252925340449966	0.2399454883858958	0.8189210870842435	0.9342666666666667	0.725927906901203	0.24405591169627916	0.8108396929080285	0.9342666666666667	0.7267137688001373	0.2427568511050361	0.8258101769587125	0.9342666666666665	0.6925689112122199	0.24327892678625096	0.8240304741531925	0.9342666666666667	0.7181744180806342	0.24520104170892232	0.8356338156491371	0.9342666666666667	0.7089253895146009	0.2547203864720021	0.8138409448087726	0.9342666666666669	0.7129552627092871	0.24270827374416493	0.8447685541790073	0.9342666666666668	0.7344804245202629	0.25294794667607234	0.8403456833536143	0.9342666666666667	0.6866421244091832	0.23963460034637152	0.8362017402710088	0.9342666666666667	0.6677248355127844	0.24192768311772195	0.8786031646741517
0.9676333333333337	0.7290627735938555	0.24104534113406018	0.8330572305230873	0.9676333333333335	0.7529973424870334	0.23939035193376368	0.8586457995446335	0.9676333333333335	0.7539882875124846	0.24201385429331324	0.8409705141890209	0.9676333333333335	0.7544979877249893	0.24161482690144298	0.847222825244144	0.9676333333333332	0.7195140446057048	0.24308113686194155	0.8334052977248323	0.9676333333333332	0.746597398719544	0.24401250418961662	0.8407982435922996	0.9676333333333335	0.7357467929343775	0.2533339507883595	0.803032721038732	0.9676333333333335	0.7422036576145943	0.24238975017979436	0.842137339048976	0.9676333333333333	0.7630307562798428	0.2509738764426539	0.8658443733414287	0.9676333333333335	0.7150532339093565	0.23591553734998316	0.8403806720761416	0.9676333333333335	0.6988382855186099	0.24271515640883878	0.8588343739603935
1.001	0.7565343970889687	0.24048420776735868	0.8525823207259934	1.0009999999999997	0.7822364785509109	0.23356495967546265	0.8769921312560512	1.0009999999999997	0.7816981497995843	0.23779329691907924	0.8599322273941357	1.0009999999999997	0.7829106715915735	0.23655572838280758	0.8636122885998646	1.001	0.7481343683571453	0.24091042291462061	0.8530699270115512	1.001	0.7741480919960622	0.24130258723764508	0.8532810747382499	1.001	0.762335784723223	0.250348202758386	0.8527329182088519	1.001	0.7690122095319808	0.23872017588628713	0.8160970706771541	1.0010000000000001	0.7919143592256502	0.24662732471332982	0.8944451864138361	1.0010000000000003	0.742669198997143	0.237166659200174	0.8170875342809109	1.0010000000000003	0.7250297942014644	0.24288056677897185	0.8270024857327437
1.0343666666666667	0.7857553608909614	0.2362425611569785	0.8881985311563452	1.0343666666666667	0.8104409368961801	0.22819377971976884	0.9018703314183211	1.0343666666666667	0.8104611262186221	0.2318164032018183	0.9169645732209672	1.0343666666666667	0.8110150460971379	0.2303348429312566	0.9042349522132684	1.0343666666666669	0.7762111067411225	0.23795638543236053	0.84574817353443	1.0343666666666667	0.802809728364035	0.2349241363208976	0.9061330703224972	1.0343666666666669	0.7919486853900839	0.2444116683700095	0.9352697995015029	1.0343666666666669	0.7959700948873936	0.23372041115268172	0.8924982626527284	1.0343666666666669	0.821545737548842	0.23919208757470023	0.9409447612713006	1.0343666666666669	0.7695224246030588	0.23340590696497665	0.8670263845526497	1.0343666666666667	0.7540220231160741	0.24198012764670662	0.8630240134340716
1.0677333333333334	0.8147206371551892	0.2291888708786628	0.9032774689218447	1.0677333333333334	0.8407141354540019	0.21933206070393763	0.9404418966928721	1.0677333333333334	0.8409813605008664	0.22262839204901108	0.9491247797061334	1.0677333333333334	0.841340719152879	0.22148388633820892	0.9703784630927651	1.0677333333333332	0.8039667902490792	0.23265399967743006	0.8628973059716455	1.0677333333333334	0.8326603277372449	0.22604309446620785	0.9689857414911816	1.0677333333333336	0.8229338937040069	0.2354037873652861	0.9601008608587207	1.0677333333333334	0.8274134959099836	0.22703214871643274	0.9866919777986395	1.0677333333333332	0.8524470114215082	0.22993358173261247	0.9838041720463903	1.0677333333333334	0.7998040950670704	0.22803799999696062	0.9075594219014373	1.0677333333333334	0.7824315027199505	0.23819693960880917	0.9077959819656201
1.1011000000000002	0.8435602061807476	0.21915093996423585	1.0294253854664217	1.1011000000000002	0.8704856512353705	0.20993721677301225	1.0140993709242387	1.1011000000000002	0.8709698951074005	0.21309678500925333	1.0131353383119133	1.1011000000000002	0.8729912912642004	0.21156356405868715	1.0142593470527337	1.1011	0.8322094685200541	0.2245361732576403	0.9550042864329943	1.1011000000000002	0.8645376118964712	0.2156613268261035	1.0408238825523428	1.1011000000000002	0.8534359184838421	0.22640115173876452	1.0030662814344724	1.1011000000000002	0.8595680122458735	0.21666458660754684	0.9915043597462946	1.1011	0.884170949738719	0.21948580118986105	1.0458889322155032	1.1011	0.8286155787052216	0.22013738745235367	0.935417185138962	1.1011000000000002	0.8137059631103553	0.2315977279932312	0.9284005655442251
1.134466666666667	0.8800775079877063	0.20802863667719895	1.0845326380323344	1.1344666666666665	0.9054513348442821	0.19961159913926096	1.097095530394042	1.1344666666666665	0.9056621029886323	0.2029433751146218	1.1025163302147323	1.1344666666666665	0.9060318192064083	0.20157639473089028	1.0734289629737648	1.1344666666666667	0.8643503591837821	0.2122722321036521	1.023965566323266	1.1344666666666665	0.8986074886620612	0.20424087655101508	1.0986797420474501	1.1344666666666667	0.8867147421292204	0.21508893081932934	1.0892800650089964	1.1344666666666667	0.8900677926871765	0.2057617376852926	1.0552115987233555	1.1344666666666667	0.9190278499192958	0.20899497227637331	1.1306448772466804	1.1344666666666667	0.8596259686868926	0.21020439014025494	0.9998458729103817	1.134466666666667	0.8424470988317759	0.22281568442196098	0.9547755306914782
1.1678333333333333	0.9123952112301319	0.19679457281541923	1.0813676787480349	1.1678333333333333	0.9410507328690616	0.19042595213017166	1.1141087009493658	1.1678333333333333	0.9412453065852351	0.19131177178008119	1.1131449563448501	1.1678333333333333	0.9416707462794001	0.19120454274285403	1.1122505314888946	1.1678333333333335	0.8967556693861035	0.20210545720634088	1.069974741616719	1.167833333333333	0.9349069680818509	0.195075769667294	1.1509264584397019	1.1678333333333333	0.9231168597652865	0.20569873602821553	1.1239870444868403	1.1678333333333335	0.9261977275628006	0.19387981509822905	1.1368112177681429	1.1678333333333335	0.9570305831944096	0.1998788364027202	1.167686343461883	1.1678333333333333	0.8925122099235769	0.20092318326556857	1.0877308920478777	1.1678333333333337	0.8744322528710674	0.21231135883910413	1.0496643946843194
1.2012	0.9497265570579561	0.1891461721579114	1.1479298349499794	1.2012	0.9786413228914566	0.18653954475058632	1.132420305890636	1.2012	0.978575278295784	0.18873905475358344	1.1472369838614944	1.2012	0.9788697082533453	0.18729803251465638	1.1387092703238455	1.2011999999999998	0.9327281601331864	0.19170862235385722	1.1280188500647284	1.2011999999999998	0.974062658405086	0.1899038682499965	1.1677777571987995	1.2012	0.9600314897558367	0.19925337312282154	1.1360978295600097	1.2012	0.9638863967150431	0.18826776424264013	1.157359956662851	1.2012000000000003	0.9958628404276358	0.19601529661727768	1.170387370858506	1.2012	0.9291902882936551	0.1894725341230431	1.1452395370767492	1.2012	0.9089069392922725	0.20068524331690563	1.107324346661538
1.2345666666666668	0.9880606616961025	0.18483238780058886	1.166228000281053	1.2345666666666668	1.0165205055658304	0.18653162570737347	1.151264445617434	1.2345666666666668	1.0177548744126492	0.18856248853560764	1.143496040784736	1.2345666666666668	1.0175998749157655	0.18816693615401436	1.130633586952036	1.2345666666666666	0.9708564209016809	0.1888531463527452	1.145268946369895	1.2345666666666666	1.0126649632562696	0.18990540297238323	1.1520082257517115	1.2345666666666666	0.9985655809284723	0.19824924314618497	1.1565236218175934	1.2345666666666668	1.003118869581706	0.1869297062992581	1.14876842495285	1.2345666666666666	1.035084485966838	0.1970860362820338	1.1716110847542274	1.2345666666666668	0.9667931179510929	0.18294466965271783	1.166647759770534	1.2345666666666668	0.9457267433758164	0.19287859331059265	1.1684040733524765
1.2679333333333336	1.0274908433555574	0.18604038260709865	1.1693913144246446	1.2679333333333336	1.0554202101971022	0.18927817638311029	1.1268318807755835	1.2679333333333336	1.0548689537581717	0.19028331043638735	1.1088112724460157	1.2679333333333336	1.05427818881546	0.18982916246671333	1.1071733086084943	1.2679333333333334	1.009055224439688	0.1877895037974967	1.1266193908800444	1.2679333333333334	1.0508974126666921	0.1924626406793324	1.1238038978066134	1.2679333333333334	1.0371690700731642	0.20177166378813727	1.133178043749722	1.2679333333333334	1.0405475428890127	0.18826496196746667	1.1335562736598634	1.2679333333333334	1.073950538009585	0.19992502015856983	1.1593424759912527	1.2679333333333331	1.0066553300982408	0.18169703627304412	1.1588192136551132	1.2679333333333336	0.9855453061837015	0.18632852719589943	1.1941884638349463
1.3013	1.06598744203195	0.18898565681039947	1.1312322336788294	1.3013	1.0915190126300673	0.19199513843084515	1.0811801038305158	1.3013	1.0916255094722604	0.1928451042040369	1.0802917306275535	1.3013	1.091290220858286	0.19353164902590692	1.1004049472000488	1.3013000000000001	1.04602797900993	0.19016861886958658	1.1152614490815078	1.3012999999999997	1.087407557670612	0.19605533146697418	1.1115619377889006	1.3013000000000001	1.0739270069779052	0.20450647975339098	1.0767959464325991	1.3013000000000001	1.07848910591783	0.19338285090663876	1.119330350108534	1.3013000000000001	1.1121736854786899	0.203633951083529	1.0865585869482568	1.3012999999999997	1.0441232992424474	0.18345555369470767	1.1152546155943754	1.3013000000000003	1.0251568516174925	0.18642096595893642	1.1689158230333545
1.3346666666666667	1.1027048358422362	0.19250033414853795	1.0947033950735086	1.3346666666666667	1.127177695500924	0.19680109834774973	1.0709560407536736	1.3346666666666667	1.1265701785667068	0.1977742477621286	1.0597504217083116	1.3346666666666667	1.127422768425359	0.19633894907852123	1.0711570436244056	1.334666666666667	1.0832251779221498	0.19394706821759844	1.1151563597532217	1.3346666666666664	1.1246825399567675	0.20008925778907405	1.0953633824304707	1.3346666666666664	1.1087533217036798	0.20804010517724947	1.0813850389144468	1.334666666666667	1.1148343340473554	0.19607914701892748	1.0874992495812277	1.334666666666667	1.1461869283337425	0.206214462111167	1.0626802141051634	1.3346666666666664	1.0806746852901148	0.18945363201342758	1.118474456224313	1.3346666666666667	1.0634577801214569	0.1901400519457982	1.1599562200454072
1.3680333333333334	1.1387725649259803	0.19523840617903443	1.0906998156779881	1.3680333333333334	1.1628066708542801	0.19707563860760013	1.0556609884649775	1.3680333333333334	1.1620417781489256	0.19939975312829472	1.0717283394609374	1.3680333333333334	1.162578849016425	0.19878433120094374	1.055714004511037	1.3680333333333332	1.1201285560285779	0.19703580555650724	1.1024662825134142	1.3680333333333332	1.1603960624179834	0.20004106747136874	1.0671968765756938	1.368033333333333	1.1459198628578586	0.20947974918650047	1.0616134054928121	1.3680333333333334	1.150882532630932	0.19847718662621616	1.0729098685733673	1.3680333333333332	1.183032282145201	0.2064915202654103	1.0822360556028257	1.3680333333333332	1.118391194093503	0.19089457518596764	1.073291765272092	1.368033333333333	1.102298437609609	0.19283460062787317	1.1410581883851387
1.4014000000000004	1.175434293749774	0.19536961127699493	1.067252870434609	1.4014000000000004	1.1976157378812005	0.1956300228689195	1.0437706076134503	1.4014000000000004	1.198090158948812	0.19783300734004716	1.0671307440466096	1.4014000000000004	1.197868996140298	0.1971855452352007	1.0486685993163571	1.4014000000000002	1.1566956664043042	0.19779624175808086	1.0730155016652854	1.4014000000000002	1.1958896658399745	0.19886759061162995	1.0609895284957458	1.4013999999999998	1.179596464490694	0.20855325581019857	1.0406376905276324	1.4014000000000002	1.1864195528813635	0.19747630031440988	1.0444024660741171	1.4014000000000002	1.2183656531337648	0.20373732178290804	1.0783555922619497	1.4014000000000002	1.1521355325452252	0.19429026097666835	1.0277572747389163	1.4013999999999998	1.1391929336843092	0.19804534825920717	1.089897721356393
1.4347666666666672	1.2099536088133274	0.1928428929120909	1.054842202148809	1.4347666666666672	1.2321719774396285	0.19073729341184398	1.0752089654956394	1.4347666666666672	1.2329782129182971	0.19312752166123026	1.0603244368295135	1.4347666666666672	1.2322791076815822	0.1925205093244322	1.0772075636582883	1.434766666666667	1.1917326482194877	0.19652682596314675	1.066563136935886	1.4347666666666665	1.2310120236158333	0.1948929682497944	1.0809362566911367	1.4347666666666667	1.2152423706940283	0.2053531586525571	1.070855108692148	1.4347666666666667	1.2204738826109287	0.19465092838329057	1.071857687814826	1.434766666666667	1.254794577899459	0.20113052860847846	1.099903606372021	1.4347666666666665	1.186976844685772	0.19084459815739818	1.0405387228955887	1.4347666666666667	1.1749299678770773	0.19666585656193714	1.1055526764172012
1.4681333333333335	1.2456555278763737	0.19045311715122393	1.1000420594004223	1.4681333333333335	1.2687682217988916	0.18637186575146458	1.072745182641577	1.4681333333333335	1.268089818650085	0.1874946578409471	1.0979073397175212	1.4681333333333335	1.2690502661723186	0.1871469359710588	1.0982343965324353	1.4681333333333337	1.2276717821982697	0.19247494345870964	1.0906171514108416	1.4681333333333333	1.267434891362364	0.1896662949423541	1.1178067838401848	1.4681333333333335	1.250617961266899	0.2006332822144049	1.0930218676015424	1.4681333333333335	1.2576465976716422	0.1909147524068172	1.095838949786207	1.4681333333333337	1.2913477096091908	0.1959133979808111	1.1165832778235105	1.4681333333333333	1.2213972455423139	0.18933680714537915	1.0504387187779298	1.4681333333333335	1.2128659238755628	0.19412514294512684	1.0761952851166399
1.5015000000000003	1.2826136158515027	0.1823799025853109	1.1004365971671843	1.5015000000000003	1.3029496392506452	0.1799974352410667		1.5015000000000003	1.3052764532695122	0.18125233136364582		1.5015000000000003	1.30465936147271	0.18101602185603272		1.5015000000000005	1.2638203142725695	0.1865082337758338	1.093370511255856	1.5015	1.3047080557342572	0.18334719831671664		1.5014999999999998	1.2871199887907054	0.19294362913754082		1.5015	1.2928113996014945	0.18392096022382876		1.5015000000000005	1.3279211688276316	0.1868218891310648		1.5015	1.2568860645019067	0.1856861445172291	1.0830335138325562	1.5014999999999998	1.2465739692091975	0.19166821981390114	1.087918500562683
1.534866666666667	1.3178969028313103	0.17726218098801172														1.5348666666666668	1.3000228476883806	0.18303532575387826																		1.5348666666666668	1.2930690162123257	0.18002276082074176		1.5348666666666666	1.2850149588205475	0.1860418952548314	1.166028831294018
																																								1.5682333333333334	1.3234471844550957	0.17961125935329292	
